…
Usage
-----

``` r
library(annotables)
```

Look at the human genes table (note the description column gets cut off because the table becomes too wide to print nicely):

``` r
grch38
```

    ## # A tibble: 64,428 x 9
    ##    ensgene  entrez symbol chr    start    end strand biotype description  
    ##    <chr>     <int> <chr>  <chr>  <int>  <int>  <int> <chr>   <chr>        
    ##  1 ENSG000…   7105 TSPAN6 X     1.01e⁸ 1.01e⁸     -1 protei… tetraspanin …
    ##  2 ENSG000…  64102 TNMD   X     1.01e⁸ 1.01e⁸      1 protei… tenomodulin …
    ##  3 ENSG000…   8813 DPM1   20    5.09e⁷ 5.10e⁷     -1 protei… dolichyl-pho…
    ##  4 ENSG000…  57147 SCYL3  1     1.70e⁸ 1.70e⁸     -1 protei… SCY1 like ps…
    ##  5 ENSG000…  55732 C1orf… 1     1.70e⁸ 1.70e⁸      1 protei… chromosome 1…
    ##  6 ENSG000…   2268 FGR    1     2.76e⁷ 2.76e⁷     -1 protei… FGR proto-on…
    ##  7 ENSG000…   3075 CFH    1     1.97e⁸ 1.97e⁸      1 protei… complement f…
    ##  8 ENSG000…   2519 FUCA2  6     1.43e⁸ 1.44e⁸     -1 protei… fucosidase, …
    ##  9 ENSG000…   2729 GCLC   6     5.35e⁷ 5.36e⁷     -1 protei… glutamate-cy…
    ## 10 ENSG000…   4800 NFYA   6     4.11e⁷ 4.11e⁷      1 protei… nuclear tran…
    ## # ... with 64,418 more rows

Look at the human genes-to-transcripts table:

``` r
grch38_tx2gene
```

    ## # A tibble: 219,288 x 2
    ##    enstxp          ensgene        
    ##    <chr>           <chr>          
    ##  1 ENST00000373020 ENSG00000000003
    ##  2 ENST00000496771 ENSG00000000003
    ##  3 ENST00000494424 ENSG00000000003
    ##  4 ENST00000612152 ENSG00000000003
    ##  5 ENST00000614008 ENSG00000000003
    ##  6 ENST00000373031 ENSG00000000005
    ##  7 ENST00000485971 ENSG00000000005
    ##  8 ENST00000371588 ENSG00000000419
    ##  9 ENST00000466152 ENSG00000000419
    ## 10 ENST00000371582 ENSG00000000419
    ## # ... with 219,278 more rows
…
